
[-0.3675262689371994, 2.3445403075221547, -1.8482796210487424, -0.5129602430890445]
[-0.4248945775541193, 2.6773677558289988, -0.9402644809145588, -0.22100999068007887]
[-0.4248945775541193, 2.6773677558289988, -0.9402644809145588, -0.22100999068007887]
[-0.5910792749940956, 2.3445403075221547, -2.5667963734732058, -0.5129602430890445]
[-0.3675262689371994, 2.3710634851988623, -2.7715071978194206, -0.5129602430890445]
[-0.5945309716463648, 2.759508163842697, -2.1774047464291972, -0.41760960940410763]
[-0.5945309716463648, 2.759508163842697, -2.1774047464291972, -0.41760960940410763]